
PLAY [all] *********************************************************************************************************************************

TASK [Gathering Facts] *********************************************************************************************************************
ok: [3.135.214.215]
ok: [3.17.175.113]
ok: [18.189.143.34]
ok: [18.224.67.2]
ok: [18.219.112.202]

TASK [testing my connections] **************************************************************************************************************
ok: [18.189.143.34]
ok: [3.135.214.215]
ok: [18.224.67.2]
ok: [3.17.175.113]
ok: [18.219.112.202]

TASK [Run the equivalent of "apt-get update" as a separate step] ***************************************************************************
changed: [18.189.143.34]
changed: [18.224.67.2]
changed: [3.17.175.113]
changed: [18.219.112.202]
changed: [3.135.214.215]

TASK [install GNUPG, cURL, ca-certificates and lsb-release] ********************************************************************************
ok: [3.17.175.113]
ok: [18.224.67.2]
ok: [18.189.143.34]
ok: [18.219.112.202]
ok: [3.135.214.215]

PLAY [backend] *****************************************************************************************************************************

TASK [Gathering Facts] *********************************************************************************************************************
ok: [3.17.175.113]

TASK [install java jre 8] ******************************************************************************************************************
ok: [3.17.175.113]

PLAY [memcached] ***************************************************************************************************************************

TASK [Gathering Facts] *********************************************************************************************************************
ok: [18.189.143.34]
ok: [18.224.67.2]
ok: [18.219.112.202]

TASK [install memcached] *******************************************************************************************************************
ok: [18.189.143.34]
ok: [18.224.67.2]
ok: [18.219.112.202]

PLAY [frontend] ****************************************************************************************************************************

TASK [Gathering Facts] *********************************************************************************************************************
ok: [3.135.214.215]

TASK [Add the nginx signing key to apt] ****************************************************************************************************
ok: [3.135.214.215]

TASK [Add the nginx apt repo] **************************************************************************************************************
ok: [3.135.214.215]

TASK [Install nginx] ***********************************************************************************************************************
ok: [3.135.214.215]

TASK [send our nginx.conf file (from template) to the frontend] ****************************************************************************
changed: [3.135.214.215]

PLAY RECAP *********************************************************************************************************************************
18.189.143.34              : ok=6    changed=1    unreachable=0    failed=0    skipped=0    rescued=0    ignored=0   
18.219.112.202             : ok=6    changed=1    unreachable=0    failed=0    skipped=0    rescued=0    ignored=0   
18.224.67.2                : ok=6    changed=1    unreachable=0    failed=0    skipped=0    rescued=0    ignored=0   
3.135.214.215              : ok=9    changed=2    unreachable=0    failed=0    skipped=0    rescued=0    ignored=0   
3.17.175.113               : ok=6    changed=1    unreachable=0    failed=0    skipped=0    rescued=0    ignored=0   

