-------------------------------------------------------------------------------
Test set: com.develeap.course.embedash.EmbedashApplicationTests
-------------------------------------------------------------------------------
Tests run: 1, Failures: 0, Errors: 0, Skipped: 0, Time elapsed: 8.948 s - in com.develeap.course.embedash.EmbedashApplicationTests
